[2020-07-19 23:53:01][175] Processing: App\Jobs\SendCustomerEmail
[2020-07-19 23:53:13][175] Processed:  App\Jobs\SendCustomerEmail
[2020-07-20 00:14:49][177] Processing: App\Jobs\SendCustomerEmail
[2020-07-20 00:15:02][177] Processed:  App\Jobs\SendCustomerEmail
[2020-07-20 00:21:16][178] Processing: App\Jobs\SendCustomerEmail
[2020-07-20 00:21:20][178] Processed:  App\Jobs\SendCustomerEmail
[2020-07-20 01:01:20][180] Processing: App\Jobs\SendCustomerEmail
[2020-07-20 01:01:29][180] Processed:  App\Jobs\SendCustomerEmail
[2020-07-20 01:02:08][183] Processing: App\Jobs\SendCustomerEmail
[2020-07-20 01:02:22][183] Processed:  App\Jobs\SendCustomerEmail
[2020-07-20 01:04:19][184] Processing: App\Jobs\SendCustomerEmail
[2020-07-20 01:04:23][184] Processed:  App\Jobs\SendCustomerEmail
[2020-07-20 01:07:48][186] Processing: App\Jobs\SendCustomerEmail
[2020-07-20 01:07:52][186] Processed:  App\Jobs\SendCustomerEmail
[2020-07-20 01:20:14][188] Processing: App\Jobs\SendCustomerEmail
[2020-07-20 01:20:19][188] Processed:  App\Jobs\SendCustomerEmail
[2020-07-20 01:40:24][190] Processing: App\Jobs\SendCustomerEmail
[2020-07-20 01:40:29][190] Processed:  App\Jobs\SendCustomerEmail
[2020-07-20 01:40:32][192] Processing: App\Jobs\SendCustomerEmail
[2020-07-20 01:40:37][192] Processed:  App\Jobs\SendCustomerEmail
[2020-07-20 01:40:37][193] Processing: App\Jobs\SendCustomerEmail
[2020-07-20 01:40:50][193] Processed:  App\Jobs\SendCustomerEmail
[2020-07-20 01:41:50][194] Processing: App\Jobs\SendCustomerEmail
[2020-07-20 01:41:55][194] Processed:  App\Jobs\SendCustomerEmail
[2020-07-20 01:43:49][196] Processing: App\Jobs\SendCustomerEmail
[2020-07-20 01:43:54][196] Processed:  App\Jobs\SendCustomerEmail
[2020-07-20 01:44:21][198] Processing: App\Jobs\SendCustomerEmail
[2020-07-20 01:44:25][198] Processed:  App\Jobs\SendCustomerEmail
[2020-07-20 02:13:34][200] Processing: App\Jobs\SendCustomerEmail
[2020-07-20 02:13:39][200] Processed:  App\Jobs\SendCustomerEmail
[2020-07-20 02:19:18][202] Processing: App\Jobs\SendCustomerEmail
[2020-07-20 02:19:27][202] Processed:  App\Jobs\SendCustomerEmail
[2020-07-20 12:06:57][205] Processing: App\Jobs\SendCustomerEmail
[2020-07-20 12:07:11][205] Processed:  App\Jobs\SendCustomerEmail
[2020-07-20 12:59:07][207] Processing: App\Jobs\SendCustomerEmail
[2020-07-20 12:59:20][207] Processed:  App\Jobs\SendCustomerEmail
[2020-07-20 13:38:28][208] Processing: App\Jobs\SendCustomerEmail
[2020-07-20 13:38:33][208] Processed:  App\Jobs\SendCustomerEmail
[2020-07-20 14:13:42][210] Processing: App\Jobs\SendCustomerEmail
[2020-07-20 14:13:50][210] Processed:  App\Jobs\SendCustomerEmail
[2020-07-20 14:28:35][212] Processing: App\Jobs\SendCustomerEmail
[2020-07-20 14:28:39][212] Processed:  App\Jobs\SendCustomerEmail
[2020-07-20 14:32:52][214] Processing: App\Jobs\SendCustomerEmail
[2020-07-20 14:32:57][214] Processed:  App\Jobs\SendCustomerEmail
[2020-07-20 14:36:40][216] Processing: App\Jobs\SendCustomerEmail
[2020-07-20 14:36:44][216] Processed:  App\Jobs\SendCustomerEmail
[2020-07-20 14:36:44][218] Processing: App\Jobs\SendCustomerEmail
[2020-07-20 14:36:48][218] Processed:  App\Jobs\SendCustomerEmail
[2020-07-20 14:36:48][219] Processing: App\Jobs\SendCustomerEmail
[2020-07-20 14:37:01][219] Processed:  App\Jobs\SendCustomerEmail
[2020-07-20 14:41:19][222] Processing: App\Jobs\SendCustomerEmail
[2020-07-20 14:41:36][222] Processed:  App\Jobs\SendCustomerEmail
[2020-07-20 14:54:58][223] Processing: App\Jobs\SendCustomerEmail
[2020-07-20 14:55:03][223] Processed:  App\Jobs\SendCustomerEmail
[2020-07-20 15:11:12][226] Processing: App\Jobs\SendCustomerEmail
[2020-07-20 15:11:26][226] Processed:  App\Jobs\SendCustomerEmail
[2020-07-20 15:26:58][227] Processing: App\Jobs\SendCustomerEmail
[2020-07-20 15:27:02][227] Processed:  App\Jobs\SendCustomerEmail
[2020-07-20 17:38:53][229] Processing: App\Jobs\SendCustomerEmail
[2020-07-20 17:38:58][229] Processed:  App\Jobs\SendCustomerEmail
[2020-07-20 18:08:07][232] Processing: App\Jobs\SendCustomerEmail
[2020-07-20 18:08:26][232] Processed:  App\Jobs\SendCustomerEmail
[2020-07-20 19:10:37][234] Processing: App\Jobs\SendCustomerEmail
[2020-07-20 19:10:52][234] Processed:  App\Jobs\SendCustomerEmail
[2020-07-22 01:52:16][235] Processing: App\Jobs\SendCustomerEmail
[2020-07-22 01:52:21][235] Processed:  App\Jobs\SendCustomerEmail
[2020-07-29 18:33:00][237] Processing: App\Jobs\SendCustomerEmail
[2020-07-29 18:33:05][237] Processed:  App\Jobs\SendCustomerEmail
[2020-07-29 18:33:05][238] Processing: App\Jobs\SendCustomerEmail
[2020-07-29 18:33:19][238] Processed:  App\Jobs\SendCustomerEmail
[2020-07-29 18:37:23][239] Processing: App\Jobs\SendCustomerEmail
[2020-07-29 18:37:28][239] Processed:  App\Jobs\SendCustomerEmail
[2020-07-29 18:37:58][240] Processing: App\Jobs\SendCustomerEmail
[2020-07-29 18:38:03][240] Processed:  App\Jobs\SendCustomerEmail
[2020-07-29 18:40:12][242] Processing: App\Jobs\SendCustomerEmail
[2020-07-29 18:40:17][242] Processed:  App\Jobs\SendCustomerEmail
[2020-08-04 16:19:28][243] Processing: App\Jobs\SendCustomerEmail
[2020-08-04 16:19:36][243] Processed:  App\Jobs\SendCustomerEmail
[2020-08-04 16:19:36][244] Processing: App\Jobs\SendCustomerEmail
[2020-08-04 16:19:54][244] Processed:  App\Jobs\SendCustomerEmail
[2020-08-04 16:19:54][245] Processing: App\Jobs\SendCustomerEmail
[2020-08-04 16:19:58][245] Processed:  App\Jobs\SendCustomerEmail
[2020-08-04 16:20:49][246] Processing: App\Jobs\SendCustomerEmail
[2020-08-04 16:20:55][246] Processed:  App\Jobs\SendCustomerEmail
[2020-08-04 16:20:55][247] Processing: App\Jobs\SendCustomerEmail
[2020-08-04 16:21:19][247] Processed:  App\Jobs\SendCustomerEmail
